{
	"type": "REFERENCE",
	"value": "%",
	"sub-id": 1,
	"data": [
		[
			[ 466.901031, 628.913086 ],
			[ 459.103577, 628.855042 ],
			[ 453.681519, 625.447449 ],
			[ 446.495087, 619.910034 ],
			[ 438.411072, 611.516602 ],
			[ 432.992737, 598.457825 ],
			[ 432.737183, 581.663513 ],
			[ 435.592560, 567.422058 ],
			[ 440.990723, 559.812683 ],
			[ 447.072815, 559.009338 ],
			[ 452.842407, 562.093689 ],
			[ 458.613068, 571.252625 ],
			[ 463.826355, 586.413086 ],
			[ 464.541656, 599.633667 ],
			[ 463.871277, 610.767578 ],
			[ 462.717529, 619.590942 ],
			[ 463.128632, 622.838196 ],
			[ 464.896271, 624.466980 ],
			[ 465.121460, 624.832275 ]
		],
		[
			[ 538.834412, 622.249878 ],
			[ 536.783997, 614.899536 ],
			[ 530.175598, 601.396240 ],
			[ 514.836609, 569.875122 ],
			[ 492.530701, 526.506104 ],
			[ 473.959320, 491.013000 ],
			[ 454.014587, 455.086731 ],
			[ 446.267548, 440.505981 ],
			[ 443.798615, 433.999023 ],
			[ 443.072601, 431.604553 ],
			[ 443.671967, 430.651367 ],
			[ 444.270081, 430.275879 ]
		],
		[
			[ 530.841797, 461.666870 ],
			[ 522.530212, 467.174805 ],
			[ 517.439636, 467.674988 ],
			[ 510.014862, 462.064209 ],
			[ 504.497192, 452.280396 ],
			[ 503.219177, 439.570679 ],
			[ 505.766785, 429.046387 ],
			[ 511.242188, 424.513733 ],
			[ 517.837646, 424.103516 ],
			[ 523.470337, 427.827148 ],
			[ 527.459106, 439.120239 ],
			[ 527.743103, 455.936157 ],
			[ 524.166687, 468.681335 ],
			[ 518.087341, 475.202087 ],
			[ 513.784119, 476.737000 ],
			[ 513.115540, 476.967041 ]
		]
	]
}
