{
	"type": "REFERENCE",
	"value": "0",
	"sub-id": 1,
	"data": [
		[
			[ 377.650330, 600.261353 ],
			[ 373.142761, 600.905640 ],
			[ 367.486084, 600.901794 ],
			[ 359.477478, 599.447998 ],
			[ 349.032654, 594.380249 ],
			[ 337.228760, 581.742004 ],
			[ 327.836151, 559.622009 ],
			[ 321.060883, 513.794250 ],
			[ 323.918671, 469.219971 ],
			[ 332.458862, 449.172791 ],
			[ 344.231140, 434.974487 ],
			[ 356.905121, 431.705933 ],
			[ 370.026367, 434.684509 ],
			[ 379.030182, 445.100586 ],
			[ 387.367188, 467.078735 ],
			[ 392.660645, 507.546448 ],
			[ 391.597961, 552.005005 ],
			[ 386.828552, 593.053650 ],
			[ 382.321320, 612.796753 ],
			[ 378.255646, 619.591064 ],
			[ 373.807953, 622.989136 ],
			[ 374.837067, 622.247192 ],
			[ 374.829987, 622.252258 ],
			[ 374.824585, 622.256165 ]
		]
	]
}
