{
	"type": "REFERENCE",
	"value": "6",
	"sub-id": 1,
	"data": [
		[
			[ 376.318237, 633.577271 ],
			[ 374.294861, 637.625427 ],
			[ 369.846741, 636.681030 ],
			[ 362.287018, 632.109131 ],
			[ 351.871460, 621.270752 ],
			[ 337.676727, 603.868042 ],
			[ 316.271820, 568.927551 ],
			[ 298.451569, 525.436157 ],
			[ 290.799316, 495.690552 ],
			[ 292.234161, 475.169678 ],
			[ 297.286285, 456.163147 ],
			[ 307.036255, 441.166992 ],
			[ 319.726990, 431.673767 ],
			[ 333.282043, 428.093567 ],
			[ 347.756531, 427.867798 ],
			[ 360.406189, 432.063843 ],
			[ 368.147552, 441.429626 ],
			[ 372.594238, 455.819031 ],
			[ 370.248993, 469.911194 ],
			[ 365.670288, 482.535583 ],
			[ 358.077484, 493.242981 ],
			[ 346.278809, 505.309021 ],
			[ 334.047485, 514.635254 ],
			[ 324.313324, 519.143738 ],
			[ 313.443787, 517.264954 ],
			[ 306.004120, 512.357544 ],
			[ 305.617676, 510.691956 ]
		]
	]
}
