{
	"type": "REFERENCE",
	"value": "7",
	"sub-id": 2,
	"data": [
		[
			[ 288.399628, 626.914124 ],
			[ 294.289062, 622.961914 ],
			[ 302.158417, 620.681396 ],
			[ 316.127228, 619.336731 ],
			[ 333.186066, 618.985107 ],
			[ 354.750488, 620.527466 ],
			[ 374.681427, 622.550781 ],
			[ 391.154938, 624.303711 ],
			[ 403.878815, 625.256958 ],
			[ 409.935883, 625.746887 ],
			[ 412.579407, 625.516113 ],
			[ 412.710205, 624.536987 ],
			[ 410.780975, 620.980835 ],
			[ 407.088501, 613.976807 ],
			[ 400.998535, 599.822388 ],
			[ 393.374451, 580.451233 ],
			[ 384.574432, 562.045166 ],
			[ 375.101501, 542.766846 ],
			[ 362.602112, 519.324829 ],
			[ 342.500000, 481.757812 ],
			[ 333.890778, 460.798279 ],
			[ 325.798981, 443.084534 ],
			[ 316.710388, 423.763367 ],
			[ 306.313782, 409.036560 ]
		],
		[
			[ 303.718781, 538.959961 ],
			[ 309.624451, 539.619141 ],
			[ 321.901367, 539.676025 ],
			[ 340.200439, 539.757141 ],
			[ 363.306000, 539.289551 ],
			[ 363.619812, 539.277344 ],
			[ 368.344879, 539.056030 ]
		]
	]
}
