{
	"type": "REFERENCE",
	"value": ";",
	"sub-id": 1,
	"data": [
		[
			[ 376.318237, 542.291504 ],
			[ 376.318176, 537.744934 ],
			[ 376.317871, 534.779175 ],
			[ 375.627258, 532.637939 ],
			[ 372.881500, 532.186646 ],
			[ 371.686920, 535.251831 ],
			[ 371.362671, 537.097473 ],
			[ 371.485229, 539.372375 ],
			[ 373.014587, 540.611938 ],
			[ 373.105469, 540.150269 ],
			[ 372.723480, 539.625244 ],
			[ 372.349731, 538.930908 ]
		],
		[
			[ 388.973175, 428.350891 ],
			[ 382.567230, 423.146606 ],
			[ 378.125305, 414.753906 ],
			[ 371.853607, 403.348083 ],
			[ 363.973083, 390.914917 ],
			[ 355.274292, 379.138733 ],
			[ 348.445251, 367.910400 ],
			[ 347.941711, 366.765747 ],
			[ 347.708649, 365.749329 ]
		]
	]
}
