{
	"type": "REFERENCE",
	"value": "@",
	"sub-id": 1,
	"data": [
		[
			[ 350.342285, 524.967224 ],
			[ 345.680695, 526.965454 ],
			[ 341.101105, 528.080017 ],
			[ 325.691376, 524.109009 ],
			[ 315.101257, 512.839661 ],
			[ 306.163635, 498.183167 ],
			[ 299.674286, 481.719727 ],
			[ 298.822479, 467.263123 ],
			[ 301.496399, 457.804443 ],
			[ 314.194550, 452.936279 ],
			[ 323.581696, 458.102783 ],
			[ 334.703278, 470.305298 ],
			[ 342.913818, 482.827942 ],
			[ 345.844055, 493.244385 ],
			[ 346.522400, 501.409424 ],
			[ 346.364868, 504.443115 ],
			[ 344.856415, 506.127991 ],
			[ 346.302795, 486.914490 ],
			[ 350.859772, 469.469482 ],
			[ 366.238281, 449.741516 ],
			[ 374.936218, 449.889404 ],
			[ 385.409729, 455.683533 ],
			[ 397.129211, 468.210938 ],
			[ 407.927551, 482.553345 ],
			[ 419.166962, 501.063477 ],
			[ 428.160400, 524.556519 ],
			[ 430.389923, 545.736755 ],
			[ 429.449402, 586.457703 ],
			[ 420.658844, 601.997925 ],
			[ 405.899750, 617.475098 ],
			[ 388.646637, 625.549805 ],
			[ 368.154419, 626.739136 ],
			[ 333.644409, 621.362305 ],
			[ 267.584503, 586.833496 ],
			[ 238.288116, 541.527344 ],
			[ 220.695618, 489.365417 ],
			[ 221.113174, 442.160034 ],
			[ 238.664185, 389.835693 ],
			[ 264.209320, 359.937439 ],
			[ 285.401611, 349.055725 ],
			[ 308.227051, 349.909424 ],
			[ 346.895111, 357.064148 ],
			[ 382.753113, 384.737793 ],
			[ 416.122772, 427.521545 ]
		]
	]
}
