{
	"type": "REFERENCE",
	"value": "[",
	"sub-id": 1,
	"data": [
		[
			[ 432.932465, 628.246765 ],
			[ 428.297760, 627.474121 ],
			[ 419.003937, 623.625305 ],
			[ 412.903442, 622.144531 ],
			[ 404.976746, 620.586304 ],
			[ 392.955414, 618.796997 ],
			[ 378.495026, 618.742065 ],
			[ 362.963776, 618.500610 ],
			[ 346.421936, 618.460327 ],
			[ 332.083405, 618.087524 ],
			[ 321.033051, 618.440002 ],
			[ 312.355927, 618.099609 ],
			[ 307.111755, 618.086487 ],
			[ 305.613281, 617.666931 ],
			[ 304.843597, 617.323486 ],
			[ 306.755493, 613.240845 ],
			[ 310.877045, 606.268799 ],
			[ 316.079559, 589.163269 ],
			[ 320.057953, 565.590698 ],
			[ 323.838928, 527.161377 ],
			[ 324.056580, 501.013306 ],
			[ 323.292236, 483.185364 ],
			[ 322.781128, 466.769653 ],
			[ 322.812073, 452.272644 ],
			[ 323.280334, 441.621948 ],
			[ 324.095001, 436.034119 ],
			[ 325.300964, 432.680908 ],
			[ 327.152618, 431.493347 ],
			[ 329.355560, 430.240967 ],
			[ 332.088013, 429.741821 ],
			[ 334.033173, 429.492554 ],
			[ 341.611847, 426.989319 ],
			[ 347.507416, 425.693359 ],
			[ 356.434570, 424.115295 ],
			[ 369.309540, 423.094543 ],
			[ 382.009491, 422.246582 ],
			[ 397.763397, 420.965576 ]
		]
	]
}
