{
	"type": "REFERENCE",
	"value": "]",
	"sub-id": 1,
	"data": [
		[
			[ 359.000916, 552.952637 ],
			[ 364.943481, 551.631470 ],
			[ 371.612671, 551.637085 ],
			[ 380.489594, 552.181763 ],
			[ 390.789612, 551.615845 ],
			[ 402.363251, 550.353760 ],
			[ 413.806549, 548.654785 ],
			[ 420.729218, 547.178345 ],
			[ 424.625275, 545.841248 ],
			[ 426.755096, 545.092651 ],
			[ 428.050934, 544.716614 ],
			[ 426.714844, 533.865295 ],
			[ 425.642365, 520.092590 ],
			[ 425.232727, 504.697632 ],
			[ 424.013306, 486.290710 ],
			[ 422.854523, 466.896606 ],
			[ 420.106964, 445.263000 ],
			[ 417.409485, 426.332458 ],
			[ 416.058594, 407.391602 ],
			[ 416.525360, 392.167297 ],
			[ 416.402008, 382.957458 ],
			[ 416.460968, 379.162048 ],
			[ 415.917877, 376.556824 ],
			[ 415.833374, 376.175842 ],
			[ 415.799591, 376.023499 ],
			[ 415.809967, 376.070129 ],
			[ 410.320709, 377.848511 ],
			[ 401.071716, 380.462891 ],
			[ 389.652618, 384.166870 ],
			[ 386.136017, 385.817505 ],
			[ 384.233978, 386.672668 ]
		]
	]
}
