{
	"type": "REFERENCE",
	"value": "B",
	"sub-id": 1,
	"data": [
		[
			[ 347.678070, 634.243652 ],
			[ 348.295441, 624.803223 ],
			[ 351.142303, 611.725464 ],
			[ 356.739899, 578.521301 ],
			[ 363.009949, 530.263428 ],
			[ 366.203796, 495.114624 ],
			[ 366.781189, 470.657043 ],
			[ 366.218353, 448.962891 ],
			[ 365.507416, 435.434448 ],
			[ 365.214142, 422.651306 ],
			[ 366.025757, 416.295227 ],
			[ 367.014679, 414.582397 ]
		],
		[
			[ 349.676239, 613.587769 ],
			[ 354.707520, 618.656677 ],
			[ 362.923553, 622.568481 ],
			[ 374.534180, 625.887085 ],
			[ 388.699249, 627.756836 ],
			[ 404.471771, 627.966431 ],
			[ 418.126984, 623.506836 ],
			[ 425.465149, 614.095947 ],
			[ 426.448975, 602.078186 ],
			[ 422.962891, 586.128418 ],
			[ 413.239105, 566.330322 ],
			[ 401.089020, 552.542419 ],
			[ 389.245636, 543.570984 ],
			[ 380.574188, 537.779785 ],
			[ 376.510803, 536.621765 ],
			[ 374.724152, 536.833130 ],
			[ 375.071625, 536.829468 ],
			[ 383.545288, 538.125793 ],
			[ 400.786774, 539.856262 ],
			[ 415.881561, 536.028931 ],
			[ 427.634735, 527.079590 ],
			[ 432.626465, 516.667236 ],
			[ 433.795715, 502.345459 ],
			[ 430.202515, 487.474548 ],
			[ 422.174988, 470.917297 ],
			[ 407.432831, 453.492676 ],
			[ 390.125641, 439.174011 ],
			[ 373.584961, 428.834961 ],
			[ 361.754852, 423.245178 ],
			[ 355.309845, 420.623047 ],
			[ 354.622803, 421.343262 ]
		]
	]
}
