{
	"type": "REFERENCE",
	"value": "D",
	"sub-id": 1,
	"data": [
		[
			[ 402.294189, 694.212402 ],
			[ 402.727936, 686.319458 ],
			[ 404.239532, 672.245850 ],
			[ 409.677246, 635.101624 ],
			[ 412.405853, 589.732483 ],
			[ 412.529053, 549.090698 ],
			[ 404.778778, 507.479126 ],
			[ 394.457825, 488.294373 ],
			[ 378.827423, 475.042847 ],
			[ 359.403748, 465.202637 ],
			[ 337.498840, 466.937927 ]
		],
		[
			[ 359.000916, 682.885010 ],
			[ 365.152740, 680.362183 ],
			[ 375.645294, 682.423584 ],
			[ 391.072388, 686.659607 ],
			[ 414.460602, 691.343628 ],
			[ 450.136658, 694.742615 ],
			[ 478.868561, 693.516235 ],
			[ 496.942505, 683.086060 ],
			[ 514.632690, 665.102051 ],
			[ 548.760010, 617.713318 ],
			[ 550.766602, 594.164246 ],
			[ 551.360168, 553.660156 ],
			[ 539.739319, 513.201843 ],
			[ 519.330933, 481.998779 ],
			[ 500.520477, 468.482788 ],
			[ 476.278351, 452.303772 ],
			[ 452.428711, 442.630005 ],
			[ 431.920105, 441.114441 ],
			[ 423.728333, 445.354004 ],
			[ 423.058777, 445.769897 ]
		]
	]
}
