{
	"type": "REFERENCE",
	"value": "G",
	"sub-id": 1,
	"data": [
		[
			[ 432.932465, 628.246765 ],
			[ 428.794312, 631.008179 ],
			[ 424.479004, 630.782837 ],
			[ 418.163239, 630.255493 ],
			[ 411.498688, 627.885071 ],
			[ 400.355591, 621.173096 ],
			[ 387.797974, 611.913086 ],
			[ 373.607239, 598.181152 ],
			[ 358.996368, 574.102661 ],
			[ 343.563843, 531.921631 ],
			[ 335.791473, 485.218811 ],
			[ 340.967102, 460.142212 ],
			[ 350.464874, 442.729004 ],
			[ 364.479187, 431.624390 ],
			[ 379.172455, 428.446960 ],
			[ 393.740662, 426.784485 ],
			[ 406.357208, 431.895447 ],
			[ 416.999969, 440.149475 ],
			[ 423.479034, 455.670837 ],
			[ 426.192078, 473.397034 ],
			[ 425.093933, 490.270996 ],
			[ 422.065063, 501.298096 ],
			[ 416.560822, 510.307800 ],
			[ 408.200378, 515.731689 ],
			[ 401.139679, 517.811279 ],
			[ 395.127502, 519.284973 ],
			[ 391.736816, 519.805054 ],
			[ 390.070526, 520.043518 ],
			[ 389.596161, 520.257996 ],
			[ 394.070679, 520.705383 ],
			[ 403.236328, 522.248108 ],
			[ 416.547577, 525.313049 ],
			[ 429.410461, 528.454834 ],
			[ 441.030182, 530.651672 ],
			[ 448.472107, 531.263977 ],
			[ 453.429321, 530.855042 ],
			[ 456.483002, 529.886292 ],
			[ 456.799316, 526.785950 ],
			[ 456.415375, 517.866028 ],
			[ 454.877167, 503.870789 ],
			[ 453.191010, 486.606812 ],
			[ 450.560211, 466.095764 ],
			[ 447.770721, 446.614624 ],
			[ 444.998138, 431.057922 ],
			[ 444.314392, 418.799805 ],
			[ 444.198639, 416.687866 ],
			[ 444.170685, 416.178040 ]
		]
	]
}
