{
	"type": "REFERENCE",
	"value": "g",
	"sub-id": 1,
	"data": [
		[
			[ 404.292328, 516.305054 ],
			[ 400.010925, 517.018677 ],
			[ 395.186829, 519.592651 ],
			[ 388.128815, 520.302490 ],
			[ 379.503967, 519.511963 ],
			[ 366.698029, 511.503601 ],
			[ 353.356750, 498.433411 ],
			[ 342.428955, 483.041748 ],
			[ 335.089325, 466.478943 ],
			[ 331.518951, 453.135254 ],
			[ 332.371155, 445.107727 ],
			[ 336.508972, 442.355347 ],
			[ 344.238525, 442.382202 ],
			[ 356.725952, 446.806396 ],
			[ 370.762848, 458.248535 ],
			[ 381.782135, 473.501465 ],
			[ 391.665222, 488.821899 ],
			[ 397.356415, 501.323669 ],
			[ 401.087524, 509.392578 ],
			[ 402.219391, 513.946533 ],
			[ 402.097229, 515.985107 ],
			[ 401.691315, 504.494568 ],
			[ 400.507751, 479.370056 ],
			[ 398.387207, 423.979614 ],
			[ 397.037201, 373.638550 ],
			[ 394.532166, 318.757385 ],
			[ 389.148956, 280.230835 ],
			[ 381.364594, 256.953125 ],
			[ 369.465729, 229.341492 ],
			[ 362.389923, 223.276062 ],
			[ 354.213226, 216.937195 ],
			[ 346.541077, 215.174988 ],
			[ 339.379517, 214.808899 ],
			[ 333.048035, 219.190186 ],
			[ 327.380463, 229.104736 ],
			[ 322.713867, 244.882080 ],
			[ 322.497070, 260.196533 ],
			[ 325.366791, 280.692139 ],
			[ 336.140533, 321.366272 ],
			[ 353.278564, 362.053711 ],
			[ 374.199554, 395.945007 ],
			[ 396.449799, 429.199158 ],
			[ 413.459381, 450.090576 ],
			[ 426.736603, 462.829956 ],
			[ 437.901245, 468.151306 ]
		]
	]
}
