{
	"type": "REFERENCE",
	"value": "H",
	"sub-id": 1,
	"data": [
		[
			[ 363.663269, 632.911011 ],
			[ 363.664703, 621.931946 ],
			[ 364.846893, 606.498413 ],
			[ 368.555176, 572.244446 ],
			[ 373.027344, 522.923096 ],
			[ 375.571747, 477.203308 ],
			[ 376.702362, 443.037354 ],
			[ 376.743500, 423.359253 ],
			[ 377.067444, 414.239014 ],
			[ 377.077759, 412.344482 ]
		],
		[
			[ 368.325623, 526.299866 ],
			[ 375.379333, 529.242554 ],
			[ 382.938263, 530.551880 ],
			[ 394.963440, 530.921021 ],
			[ 407.552582, 531.647705 ],
			[ 420.780762, 532.863281 ],
			[ 429.695892, 534.565491 ]
		],
		[
			[ 433.598511, 631.578369 ],
			[ 428.665619, 622.045105 ],
			[ 426.884766, 609.614746 ],
			[ 427.084473, 587.264404 ],
			[ 428.062378, 537.670898 ],
			[ 429.123291, 493.054199 ],
			[ 431.455872, 463.534729 ],
			[ 432.307495, 446.342712 ],
			[ 433.894867, 434.311646 ],
			[ 435.235687, 425.864014 ],
			[ 435.875610, 421.853882 ],
			[ 435.937531, 421.459167 ]
		]
	]
}
