{
	"type": "REFERENCE",
	"value": "i",
	"sub-id": 1,
	"data": [
		[
			[ 341.683624, 522.301941 ],
			[ 341.683502, 513.772095 ],
			[ 341.107025, 504.653442 ],
			[ 340.514160, 491.566589 ],
			[ 340.295654, 476.475525 ],
			[ 340.220795, 458.645264 ],
			[ 341.437378, 443.990601 ],
			[ 344.956635, 432.168518 ],
			[ 350.366608, 425.400146 ],
			[ 358.095551, 419.870789 ],
			[ 367.497131, 418.985168 ],
			[ 379.456543, 422.200378 ]
		],
		[
			[ 336.355225, 578.939087 ],
			[ 333.785889, 575.725952 ]
		]
	]
}
