{
	"type": "REFERENCE",
	"value": "j",
	"sub-id": 1,
	"data": [
		[
			[ 305.050873, 434.347778 ],
			[ 311.442719, 442.021179 ],
			[ 318.712555, 452.869446 ],
			[ 328.356659, 465.785034 ],
			[ 339.928436, 480.931152 ],
			[ 352.914673, 499.311462 ],
			[ 365.268372, 517.490112 ],
			[ 374.154175, 530.455627 ],
			[ 379.169495, 537.807739 ],
			[ 381.646088, 539.964844 ],
			[ 381.638062, 530.682190 ],
			[ 380.230377, 508.275940 ],
			[ 376.753723, 463.769836 ],
			[ 378.694946, 400.263794 ],
			[ 385.794373, 339.809875 ],
			[ 390.101959, 304.144409 ],
			[ 389.795715, 272.541382 ],
			[ 386.822021, 252.238220 ],
			[ 379.457062, 220.644714 ],
			[ 374.252441, 209.511353 ],
			[ 367.995697, 200.454895 ],
			[ 361.170959, 193.251465 ],
			[ 352.869965, 191.501282 ],
			[ 343.633270, 196.125244 ],
			[ 335.470062, 209.264343 ],
			[ 329.770691, 231.992126 ],
			[ 329.371796, 260.026611 ],
			[ 334.531128, 306.758728 ],
			[ 344.749268, 326.756897 ],
			[ 363.525085, 362.098328 ],
			[ 375.896637, 376.218628 ],
			[ 392.718262, 394.029053 ],
			[ 407.780457, 408.756653 ],
			[ 421.831055, 423.315002 ],
			[ 423.178802, 424.850525 ],
			[ 423.806061, 425.565186 ]
		],
		[
			[ 386.308960, 579.605408 ],
			[ 383.724548, 583.486267 ],
			[ 381.362915, 585.230225 ],
			[ 379.457886, 587.167358 ]
		]
	]
}
