{
	"type": "REFERENCE",
	"value": "K",
	"sub-id": 2,
	"data": [
		[
			[ 287.067535, 710.204102 ],
			[ 291.185425, 711.577271 ],
			[ 297.065735, 713.702393 ],
			[ 303.604401, 716.494629 ],
			[ 313.509583, 719.568298 ],
			[ 325.184845, 722.780273 ],
			[ 337.251068, 726.750427 ],
			[ 348.734894, 729.869690 ],
			[ 357.769867, 730.919556 ],
			[ 364.699738, 729.350220 ],
			[ 368.562866, 726.013550 ],
			[ 371.201904, 720.020020 ],
			[ 374.321777, 707.754150 ],
			[ 376.378906, 691.643799 ],
			[ 377.423309, 672.087158 ],
			[ 378.474762, 647.688232 ],
			[ 381.643677, 610.515503 ],
			[ 382.921936, 590.459839 ],
			[ 382.663757, 571.481995 ],
			[ 381.766907, 552.305664 ],
			[ 382.210449, 517.414368 ],
			[ 382.129730, 494.997925 ],
			[ 379.999695, 483.646606 ],
			[ 375.439575, 468.363831 ],
			[ 367.743469, 453.083435 ],
			[ 357.820862, 441.192993 ],
			[ 345.228149, 429.758911 ],
			[ 332.364777, 420.579834 ],
			[ 319.795990, 414.874451 ],
			[ 308.863953, 413.299072 ],
			[ 300.818481, 416.993347 ],
			[ 295.475006, 425.116150 ],
			[ 294.396912, 436.763916 ],
			[ 296.192719, 452.720215 ],
			[ 296.787384, 456.279785 ],
			[ 297.611694, 457.453430 ]
		],
		[
			[ 512.192444, 712.869385 ],
			[ 508.427551, 713.497192 ],
			[ 506.653381, 711.742371 ],
			[ 502.531738, 706.745361 ],
			[ 498.748138, 700.870483 ],
			[ 492.887390, 690.941772 ],
			[ 485.387360, 678.518005 ],
			[ 474.929260, 663.676147 ],
			[ 463.328278, 647.675598 ],
			[ 450.907532, 627.883789 ],
			[ 438.736908, 610.477295 ],
			[ 426.354034, 596.212280 ],
			[ 413.188629, 585.413696 ],
			[ 402.625702, 580.147156 ],
			[ 394.732239, 578.452454 ],
			[ 385.394623, 578.861206 ],
			[ 381.714844, 581.510559 ],
			[ 379.432770, 583.366516 ],
			[ 380.929565, 583.202576 ],
			[ 387.472992, 583.022217 ],
			[ 397.694580, 580.725525 ],
			[ 410.204254, 573.764893 ],
			[ 420.820892, 563.397034 ],
			[ 429.590637, 552.764587 ],
			[ 435.434326, 541.600708 ],
			[ 440.441559, 527.549561 ],
			[ 443.575043, 513.465332 ],
			[ 447.298462, 500.164673 ],
			[ 451.836731, 490.468994 ],
			[ 457.011200, 479.848328 ],
			[ 463.669556, 468.698059 ],
			[ 471.065796, 456.638916 ],
			[ 481.052734, 445.162170 ],
			[ 490.330811, 435.318726 ],
			[ 499.292694, 426.089355 ],
			[ 508.671631, 419.084717 ],
			[ 517.369446, 414.469299 ],
			[ 522.570984, 415.673767 ],
			[ 523.753967, 416.207642 ],
			[ 524.180359, 416.400146 ]
		]
	]
}
