{
	"type": "REFERENCE",
	"value": "L",
	"sub-id": 1,
	"data": [
		[
			[ 366.327484, 620.917236 ],
			[ 365.046051, 609.634399 ],
			[ 364.148224, 591.637878 ],
			[ 361.720581, 558.451721 ],
			[ 357.704254, 521.721069 ],
			[ 354.237885, 495.452393 ],
			[ 349.900269, 471.306763 ],
			[ 346.548126, 451.632568 ],
			[ 345.380035, 440.940735 ],
			[ 346.904022, 437.680908 ],
			[ 352.880280, 436.567444 ],
			[ 366.688080, 439.046570 ],
			[ 383.193420, 441.240173 ],
			[ 402.463654, 443.267639 ],
			[ 419.619904, 444.061157 ],
			[ 433.119415, 444.285828 ],
			[ 442.683441, 443.309998 ],
			[ 449.978424, 441.572571 ],
			[ 453.738251, 440.090210 ],
			[ 455.056274, 439.451721 ],
			[ 456.063721, 439.992798 ]
		]
	]
}
