{
	"type": "REFERENCE",
	"value": "l",
	"sub-id": 2,
	"data": [
		[
			[ 385.642914, 578.272766 ],
			[ 385.642975, 583.650757 ],
			[ 386.829712, 579.041016 ],
			[ 387.566956, 570.140930 ],
			[ 388.406158, 551.449341 ],
			[ 388.066223, 513.656799 ],
			[ 385.215149, 469.535339 ],
			[ 382.676788, 440.690125 ],
			[ 380.618652, 419.906311 ],
			[ 381.252960, 406.725769 ],
			[ 384.813721, 398.608887 ],
			[ 394.850586, 400.428589 ],
			[ 409.623779, 407.356750 ],
			[ 415.167206, 412.333923 ],
			[ 416.957825, 414.664612 ]
		]
	]
}
