{
	"type": "REFERENCE",
	"value": "l",
	"sub-id": 3,
	"data": [
		[
			[ 369.657715, 488.985962 ],
			[ 373.952057, 496.102844 ],
			[ 379.968628, 504.413086 ],
			[ 390.316589, 517.300049 ],
			[ 403.821106, 534.582581 ],
			[ 419.752960, 559.549927 ],
			[ 442.887115, 601.539124 ],
			[ 456.506714, 642.768921 ],
			[ 459.912262, 667.905762 ],
			[ 461.498047, 705.515137 ],
			[ 457.514404, 718.877563 ],
			[ 454.171967, 730.218506 ],
			[ 450.002106, 742.928101 ],
			[ 443.638947, 751.849731 ],
			[ 436.266113, 755.086365 ],
			[ 428.023224, 752.251587 ],
			[ 419.685944, 741.671631 ],
			[ 410.562775, 715.698853 ],
			[ 395.578583, 646.898132 ],
			[ 393.708954, 586.411865 ],
			[ 400.084747, 529.920349 ],
			[ 412.832184, 468.120056 ],
			[ 426.251495, 431.043945 ],
			[ 434.883759, 426.080505 ],
			[ 445.436584, 420.905579 ],
			[ 458.045898, 422.974060 ],
			[ 472.366180, 432.954834 ],
			[ 474.041718, 434.395203 ],
			[ 475.368622, 437.229187 ]
		]
	]
}
