{
	"type": "REFERENCE",
	"value": "m",
	"sub-id": 2,
	"data": [
		[
			[ 340.351532, 536.294678 ],
			[ 339.077545, 531.833984 ],
			[ 339.022095, 523.103882 ],
			[ 338.963074, 510.330750 ],
			[ 339.384125, 493.961121 ],
			[ 340.067047, 471.916809 ],
			[ 340.088867, 448.383301 ],
			[ 340.428162, 428.782349 ],
			[ 339.312836, 415.729004 ],
			[ 338.656952, 409.294128 ],
			[ 338.634491, 408.227051 ]
		],
		[
			[ 340.351532, 478.991150 ],
			[ 337.549927, 482.498535 ],
			[ 338.482452, 485.457642 ],
			[ 341.276855, 489.942261 ],
			[ 345.481598, 495.402161 ],
			[ 353.667694, 505.064026 ],
			[ 363.108612, 514.914795 ],
			[ 373.934540, 521.543579 ],
			[ 384.076172, 521.416626 ],
			[ 394.035431, 511.218323 ],
			[ 400.439789, 493.078369 ],
			[ 403.462250, 472.824219 ],
			[ 402.717773, 451.857849 ],
			[ 400.573853, 436.973877 ],
			[ 399.314972, 425.065247 ],
			[ 398.725647, 417.332520 ],
			[ 398.442261, 413.894775 ],
			[ 398.377869, 413.348206 ]
		],
		[
			[ 402.960236, 470.329041 ],
			[ 400.982422, 474.289917 ],
			[ 400.473816, 476.560486 ],
			[ 400.398315, 479.581360 ],
			[ 401.726288, 485.449036 ],
			[ 405.581146, 492.863464 ],
			[ 413.742462, 502.872131 ],
			[ 422.864838, 511.934753 ],
			[ 431.372040, 515.124817 ],
			[ 441.075104, 512.399414 ],
			[ 450.220734, 501.888672 ],
			[ 458.421234, 482.043762 ],
			[ 462.446594, 459.661194 ],
			[ 463.445312, 440.741882 ],
			[ 461.313202, 425.644287 ],
			[ 459.607605, 418.126770 ],
			[ 459.209869, 416.310486 ],
			[ 459.170013, 416.139526 ]
		]
	]
}
