{
	"type": "REFERENCE",
	"value": "o",
	"sub-id": 3,
	"data": [
		[
			[ 380.314514, 522.301941 ],
			[ 376.402008, 522.301941 ],
			[ 372.723389, 522.301636 ],
			[ 369.265564, 520.708801 ],
			[ 363.865570, 517.715332 ],
			[ 358.924042, 512.619202 ],
			[ 353.465271, 502.615356 ],
			[ 350.336456, 488.567566 ],
			[ 349.256470, 474.074463 ],
			[ 349.923920, 460.436829 ],
			[ 350.681183, 451.580872 ],
			[ 353.757935, 445.706116 ],
			[ 358.315063, 443.161255 ],
			[ 364.775513, 441.825623 ],
			[ 370.768097, 442.038635 ],
			[ 377.503723, 443.338562 ],
			[ 383.530487, 445.736267 ],
			[ 389.509430, 451.808044 ],
			[ 392.746399, 460.329712 ],
			[ 394.710602, 472.105225 ],
			[ 394.342804, 483.992065 ],
			[ 391.833740, 495.495911 ],
			[ 385.511139, 507.396484 ],
			[ 378.959076, 517.978943 ],
			[ 373.793793, 522.210938 ],
			[ 368.992218, 521.351868 ],
			[ 364.500824, 519.371521 ],
			[ 361.429199, 517.802002 ],
			[ 359.502380, 516.775757 ],
			[ 358.952881, 514.440552 ],
			[ 359.589630, 511.853577 ],
			[ 362.763733, 508.085815 ],
			[ 371.936615, 502.085144 ],
			[ 384.659698, 499.340759 ],
			[ 398.202454, 500.046387 ],
			[ 411.726166, 503.714233 ],
			[ 424.225464, 511.958801 ],
			[ 429.374298, 515.631653 ],
			[ 429.797638, 515.935364 ]
		]
	]
}
