{
	"type": "REFERENCE",
	"value": "q",
	"sub-id": 1,
	"data": [
		[
			[ 402.294189, 520.302979 ],
			[ 396.530090, 520.302734 ],
			[ 391.610962, 520.129272 ],
			[ 384.984100, 519.695801 ],
			[ 372.977356, 519.567322 ],
			[ 358.953156, 516.356934 ],
			[ 343.613586, 507.162842 ],
			[ 332.276520, 489.234985 ],
			[ 325.900269, 450.797058 ],
			[ 327.845276, 423.891907 ],
			[ 333.247833, 406.369629 ],
			[ 342.684998, 399.769531 ],
			[ 354.794128, 400.474243 ],
			[ 366.787445, 410.550171 ],
			[ 378.847992, 426.036011 ],
			[ 388.175323, 446.563660 ],
			[ 396.282318, 469.917603 ],
			[ 400.828766, 491.005066 ],
			[ 403.904541, 506.108887 ],
			[ 404.324890, 511.516785 ],
			[ 404.124146, 512.415955 ],
			[ 403.583435, 512.740173 ],
			[ 403.734924, 512.517334 ],
			[ 401.544098, 499.061157 ],
			[ 397.356262, 460.507446 ],
			[ 394.885620, 411.163269 ],
			[ 395.440857, 344.264038 ],
			[ 397.582001, 275.504822 ],
			[ 398.121429, 241.440002 ],
			[ 398.152222, 238.761169 ]
		]
	]
}
