{
	"type": "REFERENCE",
	"value": "R",
	"sub-id": 1,
	"data": [
		[
			[ 359.000916, 626.914124 ],
			[ 359.001801, 618.424622 ],
			[ 359.005371, 604.638855 ],
			[ 358.568451, 575.991089 ],
			[ 357.740631, 542.708069 ],
			[ 357.535156, 511.453552 ],
			[ 357.552612, 478.640930 ],
			[ 357.939972, 444.090698 ],
			[ 358.817169, 423.764404 ],
			[ 360.465088, 405.756653 ],
			[ 362.032654, 394.813721 ],
			[ 363.328278, 390.444824 ],
			[ 363.482880, 389.453369 ]
		],
		[
			[ 343.681763, 604.925537 ],
			[ 349.433289, 613.124634 ],
			[ 357.732910, 619.217896 ],
			[ 369.331024, 625.759766 ],
			[ 387.015137, 630.422607 ],
			[ 405.941742, 632.327637 ],
			[ 424.207916, 628.015808 ],
			[ 436.134888, 616.569641 ],
			[ 439.746155, 602.504028 ],
			[ 439.266266, 585.814270 ],
			[ 431.946259, 567.388794 ],
			[ 419.234894, 551.274963 ],
			[ 404.777252, 541.013916 ],
			[ 392.806976, 535.261414 ],
			[ 383.333527, 534.070557 ],
			[ 379.918945, 535.325806 ],
			[ 378.206818, 535.194336 ],
			[ 380.704773, 532.188171 ],
			[ 387.223083, 524.011169 ],
			[ 398.654663, 509.642212 ],
			[ 412.254425, 493.656738 ],
			[ 427.751038, 472.680115 ],
			[ 445.558075, 450.153137 ],
			[ 459.773926, 431.470642 ],
			[ 468.489929, 420.701843 ],
			[ 471.651337, 412.050476 ],
			[ 471.780975, 411.297791 ],
			[ 471.833435, 410.993103 ]
		]
	]
}
