{
	"type": "REFERENCE",
	"value": "r",
	"sub-id": 1,
	"data": [
		[
			[ 325.698425, 538.959961 ],
			[ 326.320770, 532.576172 ],
			[ 326.137299, 522.226196 ],
			[ 326.368591, 509.688782 ],
			[ 326.405853, 493.725952 ],
			[ 326.407135, 474.741760 ],
			[ 326.390686, 453.469238 ],
			[ 326.376678, 442.827454 ],
			[ 326.368927, 435.122375 ],
			[ 326.366943, 432.211792 ],
			[ 325.418915, 430.458923 ]
		],
		[
			[ 322.368164, 503.645020 ],
			[ 326.277313, 504.296936 ],
			[ 330.133087, 506.257263 ],
			[ 334.523499, 508.076355 ],
			[ 339.847473, 510.087097 ],
			[ 345.557556, 512.528259 ],
			[ 351.243591, 514.722107 ],
			[ 361.534851, 517.716370 ],
			[ 365.409515, 518.437927 ],
			[ 365.815796, 518.512085 ],
			[ 366.751343, 518.626221 ]
		]
	]
}
