{
	"type": "REFERENCE",
	"value": "R",
	"sub-id": 2,
	"data": [
		[
			[ 366.327484, 692.879761 ],
			[ 370.284546, 673.520874 ],
			[ 375.358246, 654.806396 ],
			[ 386.633606, 616.315186 ],
			[ 398.885315, 569.798462 ],
			[ 407.921844, 526.057007 ],
			[ 407.847900, 509.119934 ],
			[ 406.900482, 488.609192 ],
			[ 403.667023, 478.863098 ],
			[ 396.629669, 470.174622 ],
			[ 383.858093, 473.943665 ],
			[ 366.660767, 491.981262 ],
			[ 366.473969, 492.197449 ],
			[ 365.159271, 495.487671 ]
		],
		[
			[ 336.355225, 647.570068 ],
			[ 331.025024, 648.237061 ],
			[ 329.401123, 650.081665 ],
			[ 331.035217, 656.271484 ],
			[ 338.167175, 669.689941 ],
			[ 350.403320, 686.813965 ],
			[ 367.330536, 704.546997 ],
			[ 385.311768, 715.785767 ],
			[ 401.966248, 719.443420 ],
			[ 418.627869, 716.542603 ],
			[ 434.567871, 708.084229 ],
			[ 445.072357, 695.326111 ],
			[ 451.491699, 681.238403 ],
			[ 451.422913, 669.068970 ],
			[ 449.200104, 658.149963 ],
			[ 445.553253, 649.099121 ],
			[ 440.894379, 640.617676 ],
			[ 436.821106, 632.182068 ],
			[ 435.110748, 622.763062 ],
			[ 436.393951, 608.550537 ],
			[ 442.478271, 588.904907 ],
			[ 452.952271, 568.113464 ],
			[ 468.930664, 544.333435 ],
			[ 494.393646, 506.991455 ],
			[ 507.167633, 494.939758 ],
			[ 518.812439, 487.586853 ],
			[ 531.535400, 479.163757 ],
			[ 533.275024, 475.596619 ],
			[ 533.744141, 475.041199 ]
		]
	]
}
