{
	"type": "REFERENCE",
	"value": "r",
	"sub-id": 3,
	"data": [
		[
			[ 292.395935, 441.010925 ],
			[ 297.786774, 441.010864 ],
			[ 301.034058, 443.024597 ],
			[ 304.590302, 445.938354 ],
			[ 309.350464, 450.271301 ],
			[ 314.838623, 456.167419 ],
			[ 322.833740, 467.197693 ],
			[ 329.409271, 477.398071 ],
			[ 334.948120, 488.834106 ],
			[ 337.517731, 501.000977 ],
			[ 336.829468, 514.156982 ],
			[ 334.676208, 529.188904 ],
			[ 330.419189, 538.984863 ],
			[ 324.973907, 545.134949 ],
			[ 320.487671, 547.816895 ],
			[ 318.518188, 548.355347 ],
			[ 316.823730, 547.470947 ],
			[ 318.029388, 545.917908 ],
			[ 326.162506, 540.270935 ],
			[ 340.913086, 533.940002 ],
			[ 353.664551, 530.960022 ],
			[ 365.839752, 530.739441 ],
			[ 373.137787, 529.797424 ],
			[ 377.344482, 526.353149 ],
			[ 378.925842, 516.938477 ],
			[ 377.442841, 501.156311 ],
			[ 376.923065, 484.478394 ],
			[ 376.295105, 467.217773 ],
			[ 377.397308, 452.825745 ],
			[ 380.690857, 443.031006 ],
			[ 381.780609, 440.110596 ],
			[ 381.924591, 439.727478 ]
		]
	]
}
