{
	"type": "REFERENCE",
	"value": "s",
	"sub-id": 1,
	"data": [
		[
			[ 282.405182, 421.687683 ],
			[ 286.160370, 427.202026 ],
			[ 290.098328, 429.428711 ],
			[ 297.624725, 432.269531 ],
			[ 310.003265, 436.572449 ],
			[ 326.862732, 442.880981 ],
			[ 345.457092, 454.532043 ],
			[ 362.356903, 470.649231 ],
			[ 376.115448, 488.651978 ],
			[ 385.861847, 504.393005 ],
			[ 392.140686, 516.985962 ],
			[ 395.654999, 524.430725 ],
			[ 396.195740, 525.160706 ],
			[ 396.827087, 522.291382 ],
			[ 398.459503, 515.300720 ],
			[ 401.557648, 501.186707 ],
			[ 405.019836, 481.152100 ],
			[ 406.029999, 457.174500 ],
			[ 404.205475, 438.825562 ],
			[ 400.462463, 422.651306 ],
			[ 394.318573, 413.535095 ],
			[ 385.267731, 411.636108 ],
			[ 375.865387, 416.349548 ],
			[ 365.446075, 428.169495 ],
			[ 360.987518, 444.612183 ],
			[ 360.871765, 446.057739 ],
			[ 360.826660, 446.621277 ]
		]
	]
}
