{
	"type": "REFERENCE",
	"value": "S",
	"sub-id": 1,
	"data": [
		[
			[ 448.917664, 622.249878 ],
			[ 442.414429, 624.418396 ],
			[ 430.592590, 627.138428 ],
			[ 413.479950, 627.257202 ],
			[ 387.611298, 622.369934 ],
			[ 360.504700, 614.058411 ],
			[ 337.399384, 603.466309 ],
			[ 322.715912, 593.148315 ],
			[ 317.545074, 583.750916 ],
			[ 320.965576, 574.951538 ],
			[ 327.726501, 563.179688 ],
			[ 343.282288, 554.082764 ],
			[ 361.805939, 542.941833 ],
			[ 381.072662, 530.769897 ],
			[ 401.617645, 515.151245 ],
			[ 413.881653, 500.748169 ],
			[ 421.969574, 486.847839 ],
			[ 421.235382, 474.400146 ],
			[ 411.322693, 462.677551 ],
			[ 395.240204, 450.618042 ],
			[ 373.460907, 440.119995 ],
			[ 349.836914, 432.017517 ],
			[ 327.650208, 427.840149 ],
			[ 326.608673, 427.765808 ],
			[ 325.552185, 427.690430 ]
		]
	]
}
