{
	"type": "REFERENCE",
	"value": "u",
	"sub-id": 1,
	"data": [
		[
			[ 406.290466, 520.969299 ],
			[ 406.290466, 516.570190 ],
			[ 406.290436, 509.010559 ],
			[ 407.754669, 498.265503 ],
			[ 409.894379, 482.365784 ],
			[ 413.084656, 460.665039 ],
			[ 417.784546, 441.654358 ],
			[ 422.636169, 429.197449 ],
			[ 428.270294, 423.407837 ],
			[ 434.762573, 422.401367 ],
			[ 440.677002, 425.868713 ],
			[ 450.067810, 433.827820 ],
			[ 460.270264, 449.250671 ],
			[ 468.066498, 468.273132 ],
			[ 475.300720, 488.128052 ],
			[ 478.971069, 506.298401 ],
			[ 479.817596, 515.956177 ],
			[ 477.848358, 519.047241 ],
			[ 477.428497, 519.687683 ],
			[ 477.342346, 519.833435 ],
			[ 476.810303, 508.607544 ],
			[ 477.759460, 483.677979 ],
			[ 480.091095, 458.120117 ],
			[ 483.247040, 436.527039 ],
			[ 485.432098, 419.049011 ],
			[ 484.882965, 414.843079 ],
			[ 484.555298, 413.671326 ]
		]
	]
}
