{
	"type": "REFERENCE",
	"value": "v",
	"sub-id": 1,
	"data": [
		[
			[ 335.023132, 532.963074 ],
			[ 336.962891, 527.787842 ],
			[ 342.127899, 516.112854 ],
			[ 349.973602, 501.958008 ],
			[ 358.288025, 485.153564 ],
			[ 367.152924, 466.403259 ],
			[ 374.608459, 447.719971 ],
			[ 380.242981, 434.730530 ],
			[ 382.641846, 428.266846 ],
			[ 383.611908, 426.995056 ],
			[ 384.406525, 426.027954 ],
			[ 384.193451, 428.358521 ],
			[ 385.644562, 444.074829 ],
			[ 387.424194, 466.242126 ],
			[ 389.380371, 484.821350 ],
			[ 392.232971, 503.818726 ],
			[ 398.104797, 521.935181 ],
			[ 404.797546, 535.578613 ],
			[ 412.422211, 541.071716 ],
			[ 418.296997, 540.262695 ],
			[ 418.878754, 538.707825 ]
		]
	]
}
