{
	"type": "REFERENCE",
	"value": "v",
	"sub-id": 2,
	"data": [
		[
			[ 406.290466, 475.659546 ],
			[ 405.522858, 480.267151 ],
			[ 406.524689, 482.793701 ],
			[ 410.838959, 488.151855 ],
			[ 414.504852, 492.829712 ],
			[ 418.900238, 496.559143 ],
			[ 425.016754, 500.693115 ],
			[ 430.890656, 503.270935 ],
			[ 435.819519, 504.795471 ],
			[ 439.328308, 504.884399 ],
			[ 442.532471, 504.584106 ],
			[ 449.312073, 498.380249 ],
			[ 452.515259, 491.005188 ],
			[ 455.159149, 481.604858 ],
			[ 457.714752, 468.829834 ],
			[ 460.120392, 455.390137 ],
			[ 461.956543, 443.280273 ],
			[ 464.128418, 434.680481 ],
			[ 465.910095, 428.299561 ],
			[ 468.344849, 423.799194 ],
			[ 472.232086, 417.380188 ],
			[ 476.604279, 414.710510 ],
			[ 480.943359, 413.093201 ],
			[ 487.185394, 413.670654 ],
			[ 491.868744, 415.526062 ],
			[ 496.135040, 420.156128 ],
			[ 500.901154, 428.163086 ],
			[ 505.020111, 439.487976 ],
			[ 508.279480, 453.167725 ],
			[ 509.115784, 469.565552 ],
			[ 508.327026, 485.142944 ],
			[ 507.220703, 496.243042 ],
			[ 504.191162, 506.075806 ],
			[ 500.574005, 514.459412 ],
			[ 497.424774, 519.305542 ],
			[ 494.998932, 520.822327 ],
			[ 492.932953, 521.811829 ],
			[ 493.450958, 521.563721 ],
			[ 493.287964, 518.973145 ],
			[ 494.141510, 515.718079 ],
			[ 497.050537, 511.308594 ],
			[ 504.858368, 506.377380 ],
			[ 511.535736, 504.669800 ],
			[ 519.275452, 504.375916 ],
			[ 528.657410, 504.555908 ],
			[ 536.535706, 505.757874 ],
			[ 543.313293, 507.463501 ],
			[ 547.822632, 509.494507 ],
			[ 548.989868, 511.296082 ],
			[ 549.562988, 511.883484 ]
		]
	]
}
