{
	"type": "REFERENCE",
	"value": "x",
	"sub-id": 1,
	"data": [
		[
			[ 341.683624, 505.643921 ],
			[ 348.254486, 499.747253 ],
			[ 355.297699, 491.449707 ],
			[ 364.958435, 480.098755 ],
			[ 378.712036, 464.437744 ],
			[ 394.378479, 447.203613 ],
			[ 408.020081, 431.200684 ],
			[ 417.985138, 418.416443 ],
			[ 423.832092, 409.490540 ],
			[ 425.456604, 404.235718 ],
			[ 424.111786, 403.771423 ]
		],
		[
			[ 402.294189, 510.308167 ],
			[ 400.398834, 506.515625 ],
			[ 385.582214, 485.989441 ],
			[ 372.414917, 468.766296 ],
			[ 357.018097, 449.706482 ],
			[ 340.822357, 430.824280 ],
			[ 327.684692, 414.347839 ],
			[ 320.264923, 405.382080 ],
			[ 319.759705, 404.787964 ]
		]
	]
}
