{
	"type": "REFERENCE",
	"value": "y",
	"sub-id": 1,
	"data": [
		[
			[ 353.006470, 517.637695 ],
			[ 359.209290, 506.947754 ],
			[ 365.191895, 499.933838 ],
			[ 375.427551, 490.484253 ],
			[ 391.023132, 474.881714 ],
			[ 408.480743, 457.920654 ],
			[ 423.171753, 444.559570 ],
			[ 435.135254, 434.432129 ],
			[ 440.464935, 430.422607 ],
			[ 441.896912, 429.101501 ],
			[ 441.920868, 429.079407 ]
		],
		[
			[ 475.559662, 513.639771 ],
			[ 469.741821, 506.515015 ],
			[ 465.257965, 499.002686 ],
			[ 457.491333, 484.378845 ],
			[ 445.725555, 462.732788 ],
			[ 424.588623, 426.354431 ],
			[ 404.720856, 393.628601 ],
			[ 392.071411, 373.781738 ],
			[ 380.736206, 351.515198 ],
			[ 374.407623, 332.287720 ],
			[ 371.786499, 317.698486 ],
			[ 371.552643, 316.616333 ]
		]
	]
}
