{
	"type": "REFERENCE",
	"value": "y",
	"sub-id": 2,
	"data": [
		[
			[ 318.371887, 434.347778 ],
			[ 325.443451, 438.240845 ],
			[ 331.509583, 446.075439 ],
			[ 339.398743, 458.778015 ],
			[ 347.487122, 472.955200 ],
			[ 356.668060, 487.173462 ],
			[ 365.595184, 499.192261 ],
			[ 373.319794, 505.109558 ],
			[ 379.428680, 503.745056 ],
			[ 387.736389, 495.444336 ],
			[ 395.932068, 483.432068 ],
			[ 403.536041, 472.408691 ],
			[ 409.810730, 466.375183 ],
			[ 417.118561, 462.770264 ],
			[ 424.662323, 461.554077 ],
			[ 431.810150, 461.371948 ],
			[ 437.626770, 461.518921 ],
			[ 442.555573, 462.764587 ],
			[ 447.607819, 466.627808 ],
			[ 451.407471, 473.499023 ],
			[ 453.423615, 480.998779 ],
			[ 454.570923, 488.888062 ],
			[ 455.526184, 494.910889 ],
			[ 456.188171, 498.047363 ],
			[ 456.754852, 499.913879 ],
			[ 458.763397, 499.478516 ],
			[ 463.716553, 488.768250 ],
			[ 468.971069, 463.697571 ],
			[ 474.678070, 405.675293 ],
			[ 474.488007, 338.060425 ],
			[ 467.415710, 298.752441 ],
			[ 453.908478, 260.747253 ],
			[ 436.082886, 229.865051 ],
			[ 423.067352, 214.494141 ],
			[ 409.193939, 201.724792 ],
			[ 397.678375, 192.630798 ],
			[ 390.980377, 190.469604 ],
			[ 385.666779, 195.392700 ],
			[ 383.897614, 210.436096 ],
			[ 383.935089, 241.722717 ],
			[ 395.300842, 308.239014 ],
			[ 418.429260, 349.652100 ],
			[ 443.787811, 385.109985 ],
			[ 483.328918, 436.969238 ],
			[ 506.863495, 467.074524 ],
			[ 513.355164, 477.408508 ],
			[ 514.134277, 478.629333 ]
		]
	]
}
