{
	"type": "REFERENCE",
	"value": "z",
	"sub-id": 1,
	"data": [
		[
			[ 352.340424, 512.307129 ],
			[ 362.681305, 510.819397 ],
			[ 368.297089, 509.101196 ],
			[ 376.220581, 506.797424 ],
			[ 384.655701, 505.040405 ],
			[ 398.558990, 504.941162 ],
			[ 411.719604, 505.201782 ],
			[ 421.395355, 505.692322 ],
			[ 428.871582, 506.490967 ],
			[ 433.578247, 506.493713 ],
			[ 436.472809, 505.794678 ],
			[ 436.230774, 503.216736 ],
			[ 433.454010, 497.728027 ],
			[ 423.987549, 488.790222 ],
			[ 408.537964, 477.486389 ],
			[ 393.333313, 466.681091 ],
			[ 379.279480, 456.753601 ],
			[ 368.933929, 448.288086 ],
			[ 361.637848, 443.363647 ],
			[ 357.977753, 440.772095 ],
			[ 356.211365, 440.152954 ],
			[ 356.386688, 440.234863 ],
			[ 359.824982, 440.291626 ],
			[ 372.973755, 440.501709 ],
			[ 389.921143, 440.333313 ],
			[ 406.513123, 440.637268 ],
			[ 423.130005, 441.673462 ],
			[ 437.738007, 441.335205 ],
			[ 449.017120, 440.375549 ],
			[ 457.267334, 438.552917 ],
			[ 461.800812, 435.661072 ],
			[ 461.926453, 435.566711 ],
			[ 462.245392, 435.327148 ]
		]
	]
}
