{
	"type": "REFERENCE",
	"value": "Z",
	"sub-id": 2,
	"data": [
		[
			[ 235.781677, 646.903687 ],
			[ 231.334091, 646.903687 ],
			[ 229.005814, 648.116882 ],
			[ 227.137131, 649.874390 ],
			[ 221.011734, 658.338928 ],
			[ 217.684326, 663.945557 ],
			[ 214.022369, 672.722900 ],
			[ 211.751785, 683.246216 ],
			[ 212.050568, 692.176147 ],
			[ 213.418076, 700.992065 ],
			[ 216.548859, 707.737427 ],
			[ 220.950256, 712.890259 ],
			[ 227.453598, 717.777588 ],
			[ 236.043610, 720.777466 ],
			[ 249.195831, 722.798706 ],
			[ 260.791901, 722.662231 ],
			[ 271.322052, 721.033997 ],
			[ 282.206909, 719.312012 ],
			[ 295.011200, 714.841858 ],
			[ 309.370361, 707.642395 ],
			[ 323.998749, 697.156982 ],
			[ 338.415039, 684.487671 ],
			[ 352.675629, 672.280762 ],
			[ 366.756256, 661.041931 ],
			[ 382.187775, 651.227173 ],
			[ 394.162659, 644.639709 ],
			[ 405.629547, 637.750854 ],
			[ 416.378754, 632.553833 ],
			[ 428.130188, 628.167786 ],
			[ 437.895416, 624.659363 ],
			[ 445.263550, 623.726135 ],
			[ 455.071136, 624.439087 ],
			[ 460.429993, 625.877441 ],
			[ 466.764374, 626.270874 ],
			[ 471.088654, 627.201904 ],
			[ 475.696381, 629.186157 ],
			[ 479.265045, 631.604248 ],
			[ 485.014099, 637.533325 ],
			[ 487.556458, 641.790161 ],
			[ 490.209320, 646.772156 ],
			[ 491.536469, 650.728760 ],
			[ 492.409637, 655.088074 ],
			[ 493.900238, 659.298767 ],
			[ 495.305359, 664.289062 ],
			[ 496.784515, 670.362549 ],
			[ 497.878235, 676.781372 ],
			[ 498.207214, 683.922546 ],
			[ 497.148895, 690.466248 ],
			[ 496.378845, 696.421753 ],
			[ 495.720734, 701.814819 ],
			[ 494.216553, 706.102417 ],
			[ 492.070984, 708.943115 ],
			[ 488.691620, 711.039551 ],
			[ 483.847839, 711.784912 ],
			[ 479.268860, 711.244568 ],
			[ 472.083557, 709.814270 ],
			[ 466.678314, 708.007141 ],
			[ 454.178955, 699.735229 ],
			[ 447.281464, 691.418579 ],
			[ 440.070099, 681.779907 ],
			[ 433.840790, 674.180298 ],
			[ 425.220795, 662.755371 ],
			[ 417.957550, 652.307617 ],
			[ 409.794403, 638.129028 ],
			[ 402.246826, 624.562744 ],
			[ 394.157532, 611.138550 ],
			[ 385.152130, 598.091064 ],
			[ 378.297028, 586.150146 ],
			[ 369.124115, 572.236877 ],
			[ 360.861053, 558.563171 ],
			[ 351.952942, 546.222717 ],
			[ 340.486237, 530.445374 ],
			[ 329.462860, 514.655762 ],
			[ 318.200897, 499.183350 ],
			[ 305.482605, 483.973083 ],
			[ 292.925323, 468.410339 ],
			[ 281.184784, 453.693848 ],
			[ 269.331818, 443.402466 ],
			[ 258.439545, 434.794556 ],
			[ 247.230392, 428.739624 ],
			[ 238.863083, 425.316956 ],
			[ 230.225540, 423.432861 ],
			[ 225.073441, 424.092773 ],
			[ 217.715317, 425.818604 ],
			[ 213.238541, 431.263733 ],
			[ 210.523346, 437.184692 ],
			[ 208.062912, 444.313049 ],
			[ 206.288712, 453.263000 ],
			[ 205.217285, 460.028992 ],
			[ 205.116486, 464.705627 ],
			[ 204.975677, 468.576660 ],
			[ 206.298676, 474.806824 ],
			[ 208.437500, 478.012817 ],
			[ 211.723450, 479.718628 ],
			[ 217.064804, 481.333923 ],
			[ 224.799545, 483.017395 ],
			[ 233.700729, 483.620972 ],
			[ 247.007050, 483.915283 ],
			[ 259.608521, 483.414673 ],
			[ 270.960571, 481.995178 ],
			[ 280.799438, 481.161743 ],
			[ 304.119507, 476.247681 ],
			[ 314.200531, 471.637390 ],
			[ 324.265808, 465.733826 ],
			[ 333.237274, 459.146179 ],
			[ 345.017517, 451.196106 ],
			[ 356.715759, 443.905884 ],
			[ 369.344543, 435.761475 ],
			[ 383.399109, 428.479248 ],
			[ 400.028412, 421.536011 ],
			[ 417.901459, 416.659241 ],
			[ 436.312225, 414.758728 ],
			[ 452.724304, 415.523804 ],
			[ 470.650665, 416.936523 ],
			[ 487.830902, 417.965210 ],
			[ 494.833160, 418.420593 ],
			[ 495.363251, 418.455566 ]
		]
	]
}
